51ec5e4cc266d5142cfc9dfa86239a78  -
9ee15e6368dbf60089dec86f52390252  -
39f341327c2463dd57658620ae5a8b1c46e1afaf  -
a8c08097c0289dd47cf466ff505b32d28e9c22a7  -
51d8b695dd528c84ec7639b3787cb5f5a3a7e656fe9389ac8d4a17ca  -
9b4a7753416c89eca4b31cc7613830f91cf98631b93f0dc35f14d13a  -
55463423f9f6d0b96b9c7b494090528a2cc4fc71deae0e119d9b09add214d271  -
1d6a5cff6f5e02f3b268fc62ac623bb9cfa1ac6194a65618647e2ed718941731  -
0e6f94cadc86b763b72eec552c1282ae181adee9aab6f802b9f5982aacea88d061bc5d862b6f62d109ded0183e05081e  -
bf0c29704ef20bd9d5ef68d25e37d81dc99d5c0190e301a2c7241b964190b957878ac7632d904074734d4a7bb8cbd69e  -
b21fe615ad05c9ddf9ff6ff7703219f4f79d357cfd16411f668326ce1d790529c02aabce6518730a9a70912a5e497877fd4d025bfd771d72bd0ca9210251ab90  -
33879da6dc35fd3b4a52e22d1ea15d2940e1cf4a39035f3080e838742942f660bd7ce3df3feaa288fbb113f0f1893b457c191bf89a98b51e3dc57cdeeacd1f91  -
18588c553d022cbc2f72c179f5ee0e5bc5f63ef082887bb99b532260cb9f1f0425ac226879f7c812f16802756c9da4e042f75e5b04f2c5e4d2d38ea7f3839f85  -
797674421028a714236f9291b51fd9724259a1c57e9cecc838677b7c4175144e0ec0c6627c5e2d1a2ffde113188c71c2b96899b24e8461cd230f75b7dbb4fdbd  -
